Lab3/Simulation/fir.vcd
$date
   Thu Oct 26 00:21:13 2023
$end
$version
  2022.1
$end
$timescale
  1ps
$end
$scope module fir_tb $end
$var wire 1 ! awready $end
$var wire 1 " wready $end
$var reg 1 # awvalid $end
$var reg 12 $ awaddr [11:0] $end
$var reg 1 % wvalid $end
$var reg 32 & wdata [31:0] $end
$var wire 1 ' arready $end
$var reg 1 ( rready $end
$var reg 1 ) arvalid $end
$var reg 12 * araddr [11:0] $end
$var wire 1 + rvalid $end
$var wire 32 , rdata [31:0] $end
$var reg 1 - ss_tvalid $end
$var reg 32 . ss_tdata [31:0] $end
$var reg 1 / ss_tlast $end
$var wire 1 0 ss_tready $end
$var reg 1 1 sm_tready $end
$var wire 1 2 sm_tvalid $end
$var wire 32 3 sm_tdata [31:0] $end
$var wire 1 4 sm_tlast $end
$var reg 1 5 axis_clk $end
$var reg 1 6 axis_rst_n $end
$var wire 4 7 tap_WE [3:0] $end
$var wire 1 8 tap_EN $end
$var wire 32 9 tap_Di [31:0] $end
$var wire 12 : tap_A [11:0] $end
$var wire 32 ; tap_Do [31:0] $end
$var wire 4 < data_WE [3:0] $end
$var wire 1 = data_EN $end
$var wire 32 > data_Di [31:0] $end
$var wire 12 ? data_A [11:0] $end
$var wire 32 @ data_Do [31:0] $end
$var reg 32 A data_length [31:0] $end
$var integer 32 B Din [31:0] $end
$var integer 32 C golden [31:0] $end
$var integer 32 D input_data [31:0] $end
$var integer 32 E golden_data [31:0] $end
$var integer 32 F m [31:0] $end
$var integer 32 G i [31:0] $end
$var integer 32 H k [31:0] $end
$var integer 32 I l [31:0] $end
$var integer 32 J n [31:0] $end
$var reg 1 K error $end
$var reg 1 L status_error $end
$var reg 1 M error_coef $end
$var integer 32 N timeout [31:0] $end
$scope module fir_DUT $end
$var wire 1 ! awready $end
$var wire 1 " wready $end
$var wire 1 O awvalid $end
$var wire 1 P wvalid $end
$var wire 12 Q awaddr [11:0] $end
$var wire 32 R wdata [31:0] $end
$var wire 1 ' arready $end
$var wire 1 S rready $end
$var wire 1 T arvalid $end
$var wire 1 + rvalid $end
$var wire 12 U araddr [11:0] $end
$var wire 32 , rdata [31:0] $end
$var wire 1 0 ss_tready $end
$var wire 1 V ss_tvalid $end
$var wire 32 W ss_tdata [31:0] $end
$var wire 1 X ss_tlast $end
$var wire 1 Y sm_tready $end
$var wire 1 2 sm_tvalid $end
$var wire 32 3 sm_tdata [31:0] $end
$var wire 1 4 sm_tlast $end
$var wire 4 7 tap_WE [3:0] $end
$var wire 1 8 tap_EN $end
$var wire 32 9 tap_Di [31:0] $end
$var wire 12 : tap_A [11:0] $end
$var wire 32 ; tap_Do [31:0] $end
$var wire 4 < data_WE [3:0] $end
$var wire 1 = data_EN $end
$var wire 32 > data_Di [31:0] $end
$var wire 12 ? data_A [11:0] $end
$var wire 32 @ data_Do [31:0] $end
$var wire 1 Z axis_clk $end
$var wire 1 [ axis_rst_n $end
$var reg 10 \ data_length [9:0] $end
$var wire 10 ] data_length_tmp [9:0] $end
$var reg 3 ^ ap_ctrl [2:0] $end
$var reg 2 _ ap_state [1:0] $end
$var reg 2 ` ap_next_state [1:0] $end
$var reg 10 a tlast_cnt [9:0] $end
$var reg 4 b cnt_x [3:0] $end
$var wire 4 c cnt_x_tmp [3:0] $end
$var reg 5 d cnt_y [4:0] $end
$var wire 5 e cnt_y_tmp [4:0] $end
$var wire 6 f next_init_addr [5:0] $end
$var reg 6 g init_addr [5:0] $end
$var reg 4 h shift [3:0] $end
$var reg 4 i shift_tmp [3:0] $end
$var wire 10 j tlast_cnt_tmp [9:0] $end
$var reg 1 k rvalid_tmp $end
$var wire 12 l tap_araddr [11:0] $end
$var reg 1 m ss_state $end
$var reg 1 n ss_next_state $end
$var reg 1 o ss_idle $end
$var reg 32 p data_ff [31:0] $end
$var wire 6 q data_A_tmp [5:0] $end
$var wire 32 r x_data [31:0] $end
$var reg 32 s x [31:0] $end
$var wire 32 t x_tmp [31:0] $end
$var reg 32 u h [31:0] $end
$var wire 32 v h_tmp [31:0] $end
$var reg 32 w m [31:0] $end
$var wire 32 x m_tmp [31:0] $end
$var reg 32 y y [31:0] $end
$var wire 32 z y_tmp [31:0] $end
$var reg 1 { sm_state $end
$var reg 1 | sm_next_state $end
$var reg 1 } sm_tlast_tmp $end
$upscope $end
$scope module tap_RAM $end
$var wire 1 ~ CLK $end
$var wire 4 7 WE [3:0] $end
$var wire 1 8 EN $end
$var wire 32 9 Di [31:0] $end
$var wire 32 ; Do [31:0] $end
$var wire 12 : A [11:0] $end
$var reg 12 !! r_A [11:0] $end
$var reg 32 "! Temp_D [31:0] $end
$upscope $end
$scope module data_RAM $end
$var wire 1 #! CLK $end
$var wire 4 < WE [3:0] $end
$var wire 1 = EN $end
$var wire 32 > Di [31:0] $end
$var wire 32 @ Do [31:0] $end
$var wire 12 ? A [11:0] $end
$var reg 12 $! r_A [11:0] $end
$var reg 32 %! Temp_D [31:0] $end
$upscope $end
$scope task config_write $end
$var reg 12 &! addr [11:0] $end
$var reg 32 '! data [31:0] $end
$upscope $end
$scope task config_read_check $end
$var reg 12 (! addr [11:0] $end
$var reg 32 )! exp_data [31:0] $end
$var reg 32 *! mask [31:0] $end
$upscope $end
$scope task ss $end
$var reg 32 +! in1 [31:0] $end
$upscope $end
$scope task sm $end
$var reg 32 ,! in2 [31:0] $end
$var reg 32 -! pcnt [31:0] $end
$upscope $end
$upscope $end
$enddefinitions $end
#0
$dumpvars
1!
bx !!
1"
bx "!
0#
0#!
bx $
bx $!
0%
bx %!
bx &
b10000 &!
1'
b1001011000 '!
x(
bx (!
x)
bx )!
bx *
bx *!
0+
bx +!
bx ,
bx ,!
x-
bx -!
bx .
x/
10
11
02
b0 3
04
05
06
b0 7
18
bx 9
b0xxxxxx :
bx ;
bx <
x=
bx >
b111100 ?
bx @
b1001011000 A
b11111111111111111011000111100000 B
b11111111111111111011000111100001 C
b1 D
b1 E
b1001011000 F
bx G
bx H
bx I
bx J
0K
0L
0M
b11110100001001000000 N
0O
0P
bx Q
bx R
xS
xT
bx U
xV
bx W
xX
1Y
0Z
0[
b0 \
bx ]
b100 ^
b1 _
b1 `
b0 a
b1010 b
b0 c
b10001 d
b0 e
b0 f
b111100 g
b0 h
b0 i
b0 j
0k
b0xxxxxx l
0m
0n
0o
b0 p
b100 q
bx r
b0 s
bx t
b0 u
bx v
b0 w
b0 x
b0 y
b0 z
0{
0|
0}
0~
$end
#5000
b0xxxxxx !!
1#
1#!
b10000 $
b111100 $!
1%
b1001011000 &
0'
0-
15
b1111 7
b1001011000 9
b10000 :
bx ;
b0 <
0=
b0 @
b11110100001000111111 N
1O
1P
b10000 Q
b1001011000 R
0V
1Z
b0 \
b1001011000 ]
b100 ^
b1 _
b1 `
b0 a
b1010 b
b10001 d
b111100 g
b0 h
0k
0m
b0 p
b0 r
b0 s
b0 t
b0 u
b0 w
b0 y
0{
1~
#10000
0#!
05
0Z
0~
#15000
b10000 !!
0#
1#!
b111100 $!
0%
b10000000 &!
1'
b0 '!
x+
b0 +!
b0x00x0xxx00 ,
1-
b0 .
0/
10
15
16
b0 7
b0xxxxxx :
b1001011000 ;
b1111 <
1=
b0 >
b0 ?
bx @
b0 G
b0 J
b11110100001000111110 N
0O
0P
1V
b0 W
0X
1Z
1[
b1001011000 \
b1001011000 ]
b100 ^
b1 _
b1 `
b0 a
b1010 b
b10001 d
b100 f
b0 g
b0 h
xk
0m
1n
1o
bx p
bx r
b0 s
bx t
b0 u
b1001011000 v
b0 w
b0 y
0{
1~
#20000
0#!
05
0Z
0~
#25000
b0xxxxxx !!
1#
1#!
b10000000 $
b0 $!
1%
b0 &
0'
b0 +!
bx ,
1-
b0 .
10
15
b1111 7
b0 9
b0 :
bx ;
b100 ?
b0 @
b1 G
b11110100001000111101 N
1O
1P
b10000000 Q
b0 R
1Z
b1001011000 \
b1001011000 ]
b100 ^
b1 _
b1 `
b0 a
b1010 b
b10001 d
b1000 f
b100 g
b0 h
xk
1m
b0 p
b0 r
b0 s
b0 t
b0 u
bx v
b0 w
b0 y
0{
1~
#30000
0#!
05
0Z
0~
#35000
b0 !!
0#
1#!
b100 $!
0%
b10000100 &!
1'
b11111111111111111111111111110110 '!
b0 +!
b0x00 ,
1-
b0 .
10
15
b0 7
b0xxxxxx :
b0 ;
b1000 ?
b0 @
b10 G
b1 J
b11110100001000111100 N
0O
0P
1Z
b1001011000 \
b1 _
b0 a
b1010 b
b10001 d
b1100 f
b1000 g
b0 h
xk
1m
b0 p
b0 s
b0 u
b0 v
b0 w
b0 y
0{
1~
#40000
0#!
05
0Z
0~
#45000
b0xxxxxx !!
1#
1#!
b10000100 $
b1000 $!
1%
b11111111111111111111111111110110 &
0'
b0 +!
bx ,
1-
b0 .
10
15
b1111 7
b11111111111111111111111111110110 9
b100 :
bx ;
b1100 ?
b0 @
b11 G
b11110100001000111011 N
1O
1P
b10000100 Q
b11111111111111111111111111110110 R
1Z
b1001011000 \
b1001011000 ]
b100 ^
b1 _
b1 `
b0 a
b1010 b
b10001 d
b10000 f
b1100 g
b0 h
xk
1m
b0 p
b0 s
b0 u
bx v
b0 w
b0 y
0{
1~
#50000
0#!
05
0Z
0~
#55000
b100 !!
0#
1#!
b1100 $!
0%
b10001000 &!
1'
b11111111111111111111111111110111 '!
b0 +!
bx01x0 ,
1-
b0 .
10
15
b0 7
b0xxxxxx :
b11111111111111111111111111110110 ;
b10000 ?
b0 @
b100 G
b10 J
b11110100001000111010 N
0O
0P
1Z
b1001011000 \
b1 _
b0 a
b1010 b
b10001 d
b10100 f
b10000 g
b0 h
xk
1m
b0 p
b0 s
b0 u
b11111111111111111111111111110110 v
b0 w
b0 y
0{
1~
#60000
0#!
05
0Z
0~
#65000
b0xxxxxx !!
1#
1#!
b10001000 $
b10000 $!
1%
b11111111111111111111111111110111 &
0'
b0 +!
bx ,
1-
b0 .
10
15
b1111 7
b11111111111111111111111111110111 9
b1000 :
bx ;
b10100 ?
b0 @
b101 G
b11110100001000111001 N
1O
1P
b10001000 Q
b11111111111111111111111111110111 R
1Z
b1001011000 \
b1001011000 ]
b100 ^
b1 _
b1 `
b0 a
b1010 b
b10001 d
b11000 f
b10100 g
b0 h
xk
1m
b0 p
b0 s
b0 u
bx v
b0 w
b0 y
0{
1~
#70000
0#!
05
0Z
0~
#75000
b1000 !!
0#
1#!
b10100 $!
0%
b10001100 &!
1'
b10111 '!
b0 +!
bx01xx ,
1-
b0 .
10
15
b0 7
b0xxxxxx :
b11111111111111111111111111110111 ;
b11000 ?
b0 @
b110 G
b11 J
b11110100001000111000 N
0O
0P
1Z
b1001011000 \
b1 _
b0 a
b1010 b
b10001 d
b11100 f
b11000 g
b0 h
xk
1m
b0 p
b0 s
b0 u
b11111111111111111111111111110111 v
b0 w
b0 y
0{
1~
#80000
0#!
05
0Z
0~
#85000
b0xxxxxx !!
1#
1#!
b10001100 $
b11000 $!
1%
b10111 &
0'
b0 +!
bx ,
1-
b0 .
10
15
b1111 7
b10111 9
b1100 :
bx ;
b11100 ?
b0 @
b111 G
b11110100001000110111 N
1O
1P
b10001100 Q
b10111 R
1Z
b1001011000 \
b1001011000 ]
b100 ^
b1 _
b1 `
b0 a
b1010 b
b10001 d
b100000 f
b11100 g
b0 h
xk
1m
b0 p
b0 s
b0 u
bx v
b0 w
b0 y
0{
1~
#90000
0#!
05
0Z
0~
#95000
b1100 !!
0#
1#!
b11100 $!
0%
b10010000 &!
1'
b111000 '!
b0 +!
b0x01xx ,
1-
b0 .
10
15
b0 7
b0xxxxxx :
b10111 ;
b100000 ?
b0 @
b1000 G
b100 J
b11110100001000110110 N
0O
0P
1Z
b1001011000 \
b1 _
b0 a
b1010 b
b10001 d
b100100 f
b100000 g
b0 h
xk
1m
b0 p
b0 s
b0 u
b10111 v
b0 w
b0 y
0{
1~
#100000
0#!
05
0Z
0~
#105000
b0xxxxxx !!
1#
1#!
b10010000 $
b100000 $!
1%
b111000 &
0'
b0 +!
bx ,
1-
b0 .
10
15
b1111 7
b111000 9
b10000 :
bx ;
b100100 ?
b0 @
b1001 G
b11110100001000110101 N
1O
1P
b10010000 Q
b111000 R
1Z
b1001011000 \
b1001011000 ]
b100 ^
b1 _
b1 `
b0 a
b1010 b
b10001 d
b101000 f
b100100 g
b0 h
xk
1m
b0 p
b0 s
b0 u
bx v
b0 w
b0 y
0{
1~
#110000
0#!
05
0Z
0~
#115000
b10000 !!
0#
1#!
b100100 $!
0%
b10010100 &!
1'
b111111 '!
b0 +!
b0xxxx00 ,
1-
b0 .
10
15
b0 7
b0xxxxxx :
b111000 ;
b101000 ?
b0 @
b1010 G
b101 J
b11110100001000110100 N
0O
0P
1Z
b1001011000 \
b1 _
b0 a
b1010 b
b10001 d
b101100 f
b101000 g
b0 h
xk
1m
b0 p
b0 s
b0 u
b111000 v
b0 w
b0 y
0{
1~
#120000
0#!
05
0Z
0~
#125000
b0xxxxxx !!
1#
1#!
b10010100 $
b101000 $!
1%
b111111 &
0'
b1 +!
bx ,
1-
b1 .
00
15
b1111 7
b111111 9
b10100 :
bx ;
b0 <
1=
b1 >
b100 ?
b0 @
b0 G
b11110100001000110011 N
1O
1P
b10010100 Q
b111111 R
1V
b1 W
1Z
b1001011000 \
b1001011000 ]
b100 ^
b1 _
b1 `
b0 a
b1010 b
b10001 d
b101100 f
b101100 g
b0 h
xk
1m
b0 p
b0 s
b0 u
bx v
b0 w
b0 y
0{
1~
#130000
0#!
05
0Z
0~
#135000
b10100 !!
0#
1#!
b100 $!
0%
b10011000 &!
1'
b111000 '!
b0xxx1xx ,
15
b0 7
b0xxxxxx :
b111111 ;
b0 @
b110 J
b11110100001000110010 N
0O
0P
1Z
b1001011000 \
b1 _
b0 a
b1010 b
b10001 d
b101100 g
b0 h
xk
1m
b1 p
b0 r
b0 s
b0 u
b111111 v
b0 w
b0 y
0{
1~
#140000
0#!
05
0Z
0~
#145000
b0xxxxxx !!
1#
1#!
b10011000 $
b100 $!
1%
b111000 &
0'
bx ,
15
b1111 7
b111000 9
b11000 :
bx ;
b11110100001000110001 N
1O
1P
b10011000 Q
b111000 R
1Z
b1001011000 \
b1001011000 ]
b100 ^
b1 _
b1 `
b0 a
b1010 b
b10001 d
b101100 g
b0 h
xk
1m
b1 p
b0 s
b0 u
bx v
b0 w
b0 y
0{
1~
#150000
0#!
05
0Z
0~
#155000
b11000 !!
0#
1#!
b100 $!
0%
b10011100 &!
1'
b10111 '!
b0xxxx00 ,
15
b0 7
b0xxxxxx :
b111000 ;
b111 J
b11110100001000110000 N
0O
0P
1Z
b1001011000 \
b1 _
b0 a
b1010 b
b10001 d
b101100 g
b0 h
xk
1m
b1 p
b0 s
b0 u
b111000 v
b0 w
b0 y
0{
1~
#160000
0#!
05
0Z
0~
#165000
b0xxxxxx !!
1#
1#!
b10011100 $
b100 $!
1%
b10111 &
0'
bx ,
15
b1111 7
b10111 9
b11100 :
bx ;
b11110100001000101111 N
1O
1P
b10011100 Q
b10111 R
1Z
b1001011000 \
b1001011000 ]
b100 ^
b1 _
b1 `
b0 a
b1010 b
b10001 d
b101100 g
b0 h
xk
1m
b1 p
b0 s
b0 u
bx v
b0 w
b0 y
0{
1~
#170000
0#!
05
0Z
0~
#175000
b11100 !!
0#
1#!
b100 $!
0%
b10100000 &!
1'
b11111111111111111111111111110111 '!
b0x01xx ,
15
b0 7
b0xxxxxx :
b10111 ;
b1000 J
b11110100001000101110 N
0O
0P
1Z
b1001011000 \
b1 _
b0 a
b1010 b
b10001 d
b101100 g
b0 h
xk
1m
b1 p
b0 s
b0 u
b10111 v
b0 w
b0 y
0{
1~
#180000
0#!
05
0Z
0~
#185000
b0xxxxxx !!
1#
1#!
b10100000 $
b100 $!
1%
b11111111111111111111111111110111 &
0'
bx ,
15
b1111 7
b11111111111111111111111111110111 9
b100000 :
bx ;
b11110100001000101101 N
1O
1P
b10100000 Q
b11111111111111111111111111110111 R
1Z
b1001011000 \
b1001011000 ]
b100 ^
b1 _
b1 `
b0 a
b1010 b
b10001 d
b101100 g
b0 h
xk
1m
b1 p
b0 s
b0 u
bx v
b0 w
b0 y
0{
1~
#190000
0#!
05
0Z
0~
#195000
b100000 !!
0#
1#!
b100 $!
0%
b10100100 &!
1'
b11111111111111111111111111110110 '!
bx01xx ,
15
b0 7
b0xxxxxx :
b11111111111111111111111111110111 ;
b1001 J
b11110100001000101100 N
0O
0P
1Z
b1001011000 \
b1 _
b0 a
b1010 b
b10001 d
b101100 g
b0 h
xk
1m
b1 p
b0 s
b0 u
b11111111111111111111111111110111 v
b0 w
b0 y
0{
1~
#200000
0#!
05
0Z
0~
#205000
b0xxxxxx !!
1#
1#!
b10100100 $
b100 $!
1%
b11111111111111111111111111110110 &
0'
bx ,
15
b1111 7
b11111111111111111111111111110110 9
b100100 :
bx ;
b11110100001000101011 N
1O
1P
b10100100 Q
b11111111111111111111111111110110 R
1Z
b1001011000 \
b1001011000 ]
b100 ^
b1 _
b1 `
b0 a
b1010 b
b10001 d
b101100 g
b0 h
xk
1m
b1 p
b0 s
b0 u
bx v
b0 w
b0 y
0{
1~
#210000
0#!
05
0Z
0~
#215000
b100100 !!
0#
1#!
b100 $!
0%
b10101000 &!
1'
b0 '!
bx01x0 ,
15
b0 7
b0xxxxxx :
b11111111111111111111111111110110 ;
b1010 J
b11110100001000101010 N
0O
0P
1Z
b1001011000 \
b1 _
b0 a
b1010 b
b10001 d
b101100 g
b0 h
xk
1m
b1 p
b0 s
b0 u
b11111111111111111111111111110110 v
b0 w
b0 y
0{
1~
#220000
0#!
05
0Z
0~
#225000
b0xxxxxx !!
1#
1#!
b10101000 $
b100 $!
1%
b0 &
0'
bx ,
15
b1111 7
b0 9
b101000 :
bx ;
b11110100001000101001 N
1O
1P
b10101000 Q
b0 R
1Z
b1001011000 \
b1001011000 ]
b100 ^
b1 _
b1 `
b0 a
b1010 b
b10001 d
b101100 g
b0 h
xk
1m
b1 p
b0 s
b0 u
bx v
b0 w
b0 y
0{
1~
#230000
0#!
05
0Z
0~
#235000
b101000 !!
0#
1#!
b100 $!
0%
1'
b10000000 (!
0)
b0 )!
b11111111111111111111111111111111 *!
b0x00 ,
15
b0 7
b0xxxxxx :
b0 ;
b0 I
b1011 J
b11110100001000101000 N
0O
0P
0T
1Z
b1001011000 \
b100 ^
b1 _
b1 `
b0 a
b1010 b
b10001 d
b101100 g
b0 h
xk
1m
b1 p
b0 s
b0 u
b0 v
b0 w
b0 y
0{
1~
#240000
0#!
05
0Z
0~
#245000
b0xxxxxx !!
1#!
b100 $!
1(
1)
b10000000 *
0+
bx ,
15
b0 :
bx ;
b11110100001000100111 N
1S
1T
b10000000 U
1Z
b1001011000 \
b100 ^
b1 _
b1 `
b0 a
b1010 b
b10001 d
b101100 g
b0 h
0k
b0 l
1m
b1 p
b0 s
b0 u
bx v
b0 w
b0 y
0{
1~
#250000
0#!
05
0Z
0~
#255000
b0 !!
1#!
b100 $!
1+
b0 ,
15
b0 ;
b11110100001000100110 N
1Z
b1001011000 \
b100 ^
b1 _
b1 `
b0 a
b1010 b
b10001 d
b101100 g
b0 h
1k
1m
b1 p
b0 s
b0 u
b0 v
b0 w
b0 y
0{
1~
#260000
0#!
05
0Z
0~
#265000
b0 !!
1#!
b100 $!
b10000100 (!
0)
b11111111111111111111111111110110 )!
b11111111111111111111111111111111 *!
15
b1 I
b11110100001000100101 N
0T
1Z
b1001011000 \
b100 ^
b1 _
b1 `
b0 a
b1010 b
b10001 d
b101100 g
b0 h
1k
1m
b1 p
b0 s
b0 u
b0 w
b0 y
0{
1~
#270000
0#!
05
0Z
0~
#275000
b0 !!
1#!
b100 $!
1(
1)
b10000100 *
0+
b0 ,
15
b100 :
b11110100001000100100 N
1T
b10000100 U
1Z
b1001011000 \
b100 ^
b1 _
b1 `
b0 a
b1010 b
b10001 d
b101100 g
b0 h
0k
b100 l
1m
b1 p
b0 s
b0 u
b0 w
b0 y
0{
1~
#280000
0#!
05
0Z
0~
#285000
b100 !!
1#!
b100 $!
1+
b11111111111111111111111111110110 ,
15
b11111111111111111111111111110110 ;
b11110100001000100011 N
1Z
b1001011000 \
b100 ^
b1 _
b1 `
b0 a
b1010 b
b10001 d
b101100 g
b0 h
1k
1m
b1 p
b0 s
b0 u
b11111111111111111111111111110110 v
b0 w
b0 y
0{
1~
#290000
0#!
05
0Z
0~
#295000
b100 !!
1#!
b100 $!
b10001000 (!
0)
b11111111111111111111111111110111 )!
b11111111111111111111111111111111 *!
15
b10 I
b11110100001000100010 N
0T
1Z
b1001011000 \
b100 ^
b1 _
b1 `
b0 a
b1010 b
b10001 d
b101100 g
b0 h
1k
1m
b1 p
b0 s
b0 u
b0 w
b0 y
0{
1~
#300000
0#!
05
0Z
0~
#305000
b100 !!
1#!
b100 $!
1(
1)
b10001000 *
0+
b11111111111111111111111111110110 ,
15
b1000 :
b11110100001000100001 N
1T
b10001000 U
1Z
b1001011000 \
b100 ^
b1 _
b1 `
b0 a
b1010 b
b10001 d
b101100 g
b0 h
0k
b1000 l
1m
b1 p
b0 s
b0 u
b0 w
b0 y
0{
1~
#310000
0#!
05
0Z
0~
#315000
b1000 !!
1#!
b100 $!
1+
b11111111111111111111111111110111 ,
15
b11111111111111111111111111110111 ;
b11110100001000100000 N
1Z
b1001011000 \
b100 ^
b1 _
b1 `
b0 a
b1010 b
b10001 d
b101100 g
b0 h
1k
1m
b1 p
b0 s
b0 u
b11111111111111111111111111110111 v
b0 w
b0 y
0{
1~
#320000
0#!
05
0Z
0~
#325000
b1000 !!
1#!
b100 $!
b10001100 (!
0)
b10111 )!
b11111111111111111111111111111111 *!
15
b11 I
b11110100001000011111 N
0T
1Z
b1001011000 \
b100 ^
b1 _
b1 `
b0 a
b1010 b
b10001 d
b101100 g
b0 h
1k
1m
b1 p
b0 s
b0 u
b0 w
b0 y
0{
1~
#330000
0#!
05
0Z
0~
#335000
b1000 !!
1#!
b100 $!
1(
1)
b10001100 *
0+
b11111111111111111111111111110111 ,
15
b1100 :
b11110100001000011110 N
1T
b10001100 U
1Z
b1001011000 \
b100 ^
b1 _
b1 `
b0 a
b1010 b
b10001 d
b101100 g
b0 h
0k
b1100 l
1m
b1 p
b0 s
b0 u
b0 w
b0 y
0{
1~
#340000
0#!
05
0Z
0~
#345000
b1100 !!
1#!
b100 $!
1+
b10111 ,
15
b10111 ;
b11110100001000011101 N
1Z
b1001011000 \
b100 ^
b1 _
b1 `
b0 a
b1010 b
b10001 d
b101100 g
b0 h
1k
1m
b1 p
b0 s
b0 u
b10111 v
b0 w
b0 y
0{
1~
#350000
0#!
05
0Z
0~
#355000
b1100 !!
1#!
b100 $!
b10010000 (!
0)
b111000 )!
b11111111111111111111111111111111 *!
15
b100 I
b11110100001000011100 N
0T
1Z
b1001011000 \
b100 ^
b1 _
b1 `
b0 a
b1010 b
b10001 d
b101100 g
b0 h
1k
1m
b1 p
b0 s
b0 u
b0 w
b0 y
0{
1~
#360000
0#!
05
0Z
0~
#365000
b1100 !!
1#!
b100 $!
1(
1)
b10010000 *
0+
b10111 ,
15
b10000 :
b11110100001000011011 N
1T
b10010000 U
1Z
b1001011000 \
b100 ^
b1 _
b1 `
b0 a
b1010 b
b10001 d
b101100 g
b0 h
0k
b10000 l
1m
b1 p
b0 s
b0 u
b0 w
b0 y
0{
1~
#370000
0#!
05
0Z
0~
#375000
b10000 !!
1#!
b100 $!
1+
b111000 ,
15
b111000 ;
b11110100001000011010 N
1Z
b1001011000 \
b100 ^
b1 _
b1 `
b0 a
b1010 b
b10001 d
b101100 g
b0 h
1k
1m
b1 p
b0 s
b0 u
b111000 v
b0 w
b0 y
0{
1~
#380000
0#!
05
0Z
0~
#385000
b10000 !!
1#!
b100 $!
b10010100 (!
0)
b111111 )!
b11111111111111111111111111111111 *!
15
b101 I
b11110100001000011001 N
0T
1Z
b1001011000 \
b100 ^
b1 _
b1 `
b0 a
b1010 b
b10001 d
b101100 g
b0 h
1k
1m
b1 p
b0 s
b0 u
b0 w
b0 y
0{
1~
#390000
0#!
05
0Z
0~
#395000
b10000 !!
1#!
b100 $!
1(
1)
b10010100 *
0+
b111000 ,
15
b10100 :
b11110100001000011000 N
1T
b10010100 U
1Z
b1001011000 \
b100 ^
b1 _
b1 `
b0 a
b1010 b
b10001 d
b101100 g
b0 h
0k
b10100 l
1m
b1 p
b0 s
b0 u
b0 w
b0 y
0{
1~
#400000
0#!
05
0Z
0~
#405000
b10100 !!
1#!
b100 $!
1+
b111111 ,
15
b111111 ;
b11110100001000010111 N
1Z
b1001011000 \
b100 ^
b1 _
b1 `
b0 a
b1010 b
b10001 d
b101100 g
b0 h
1k
1m
b1 p
b0 s
b0 u
b111111 v
b0 w
b0 y
0{
1~
#410000
0#!
05
0Z
0~
#415000
b10100 !!
1#!
b100 $!
b10011000 (!
0)
b111000 )!
b11111111111111111111111111111111 *!
15
b110 I
b11110100001000010110 N
0T
1Z
b1001011000 \
b100 ^
b1 _
b1 `
b0 a
b1010 b
b10001 d
b101100 g
b0 h
1k
1m
b1 p
b0 s
b0 u
b0 w
b0 y
0{
1~
#420000
0#!
05
0Z
0~
#425000
b10100 !!
1#!
b100 $!
1(
1)
b10011000 *
0+
b111111 ,
15
b11000 :
b11110100001000010101 N
1T
b10011000 U
1Z
b1001011000 \
b100 ^
b1 _
b1 `
b0 a
b1010 b
b10001 d
b101100 g
b0 h
0k
b11000 l
1m
b1 p
b0 s
b0 u
b0 w
b0 y
0{
1~
#430000
0#!
05
0Z
0~
#435000
b11000 !!
1#!
b100 $!
1+
b111000 ,
15
b111000 ;
b11110100001000010100 N
1Z
b1001011000 \
b100 ^
b1 _
b1 `
b0 a
b1010 b
b10001 d
b101100 g
b0 h
1k
1m
b1 p
b0 s
b0 u
b111000 v
b0 w
b0 y
0{
1~
#440000
0#!
05
0Z
0~
#445000
b11000 !!
1#!
b100 $!
b10011100 (!
0)
b10111 )!
b11111111111111111111111111111111 *!
15
b111 I
b11110100001000010011 N
0T
1Z
b1001011000 \
b100 ^
b1 _
b1 `
b0 a
b1010 b
b10001 d
b101100 g
b0 h
1k
1m
b1 p
b0 s
b0 u
b0 w
b0 y
0{
1~
#450000
0#!
05
0Z
0~
#455000
b11000 !!
1#!
b100 $!
1(
1)
b10011100 *
0+
b111000 ,
15
b11100 :
b11110100001000010010 N
1T
b10011100 U
1Z
b1001011000 \
b100 ^
b1 _
b1 `
b0 a
b1010 b
b10001 d
b101100 g
b0 h
0k
b11100 l
1m
b1 p
b0 s
b0 u
b0 w
b0 y
0{
1~
#460000
0#!
05
0Z
0~
#465000
b11100 !!
1#!
b100 $!
1+
b10111 ,
15
b10111 ;
b11110100001000010001 N
1Z
b1001011000 \
b100 ^
b1 _
b1 `
b0 a
b1010 b
b10001 d
b101100 g
b0 h
1k
1m
b1 p
b0 s
b0 u
b10111 v
b0 w
b0 y
0{
1~
#470000
0#!
05
0Z
0~
#475000
b11100 !!
1#!
b100 $!
b10100000 (!
0)
b11111111111111111111111111110111 )!
b11111111111111111111111111111111 *!
15
b1000 I
b11110100001000010000 N
0T
1Z
b1001011000 \
b100 ^
b1 _
b1 `
b0 a
b1010 b
b10001 d
b101100 g
b0 h
1k
1m
b1 p
b0 s
b0 u
b0 w
b0 y
0{
1~
#480000
0#!
05
0Z
0~
#485000
b11100 !!
1#!
b100 $!
1(
1)
b10100000 *
0+
b10111 ,
15
b100000 :
b11110100001000001111 N
1T
b10100000 U
1Z
b1001011000 \
b100 ^
b1 _
b1 `
b0 a
b1010 b
b10001 d
b101100 g
b0 h
0k
b100000 l
1m
b1 p
b0 s
b0 u
b0 w
b0 y
0{
1~
#490000
0#!
05
0Z
0~
#495000
b100000 !!
1#!
b100 $!
1+
b11111111111111111111111111110111 ,
15
b11111111111111111111111111110111 ;
b11110100001000001110 N
1Z
b1001011000 \
b100 ^
b1 _
b1 `
b0 a
b1010 b
b10001 d
b101100 g
b0 h
1k
1m
b1 p
b0 s
b0 u
b11111111111111111111111111110111 v
b0 w
b0 y
0{
1~
#500000
0#!
05
0Z
0~
#505000
b100000 !!
1#!
b100 $!
b10100100 (!
0)
b11111111111111111111111111110110 )!
b11111111111111111111111111111111 *!
15
b1001 I
b11110100001000001101 N
0T
1Z
b1001011000 \
b100 ^
b1 _
b1 `
b0 a
b1010 b
b10001 d
b101100 g
b0 h
1k
1m
b1 p
b0 s
b0 u
b0 w
b0 y
0{
1~
#510000
0#!
05
0Z
0~
#515000
b100000 !!
1#!
b100 $!
1(
1)
b10100100 *
0+
b11111111111111111111111111110111 ,
15
b100100 :
b11110100001000001100 N
1T
b10100100 U
1Z
b1001011000 \
b100 ^
b1 _
b1 `
b0 a
b1010 b
b10001 d
b101100 g
b0 h
0k
b100100 l
1m
b1 p
b0 s
b0 u
b0 w
b0 y
0{
1~
#520000
0#!
05
0Z
0~
#525000
b100100 !!
1#!
b100 $!
1+
b11111111111111111111111111110110 ,
15
b11111111111111111111111111110110 ;
b11110100001000001011 N
1Z
b1001011000 \
b100 ^
b1 _
b1 `
b0 a
b1010 b
b10001 d
b101100 g
b0 h
1k
1m
b1 p
b0 s
b0 u
b11111111111111111111111111110110 v
b0 w
b0 y
0{
1~
#530000
0#!
05
0Z
0~
#535000
b100100 !!
1#!
b100 $!
b10101000 (!
0)
b0 )!
b11111111111111111111111111111111 *!
15
b1010 I
b11110100001000001010 N
0T
1Z
b1001011000 \
b100 ^
b1 _
b1 `
b0 a
b1010 b
b10001 d
b101100 g
b0 h
1k
1m
b1 p
b0 s
b0 u
b0 w
b0 y
0{
1~
#540000
0#!
05
0Z
0~
